jib_utils.c:33:6:crc8_init	8	static
jib_utils.c:9:6:Jib1_Init	24	static
jib_utils.c:57:9:SPI1_noc_mmap_write	24	static
jib_utils.c:48:9:noc_mmap_write	0	static
jib_utils.c:87:9:JSPI_get_status	24	static
jib_utils.c:99:10:JSPI_get_32bit	32	static
jib_utils.c:69:9:SPI1_noc_mmap_read	16	static
jib_utils.c:52:9:noc_mmap_read	0	static
