<!--This work is licensed under a Creative Commons Attribution-ShareAlike 4.0 International License (CC BY-SA) with Design Exception 1.0-->
<eagle version="7.1.0">
<drawing>
<settings>
<setting alwaysvectorfont="no"/>
<setting verticaltext="up"/>
</settings>
<grid distance="0.1" unitdist="inch" unit="inch" style="lines" multiple="1" display="no" altdistance="0.01" altunitdist="inch" altunit="inch"/>
<layers>
<layer number="1" name="Top" color="4" fill="1" visible="yes" active="yes"/>
<layer number="16" name="Bottom" color="1" fill="1" visible="yes" active="yes"/>
<layer number="17" name="Pads" color="2" fill="1" visible="yes" active="yes"/>
<layer number="18" name="Vias" color="2" fill="1" visible="yes" active="yes"/>
<layer number="19" name="Unrouted" color="6" fill="1" visible="yes" active="yes"/>
<layer number="20" name="Dimension" color="15" fill="1" visible="yes" active="yes"/>
<layer number="21" name="tPlace" color="7" fill="1" visible="yes" active="yes"/>
<layer number="22" name="bPlace" color="7" fill="1" visible="yes" active="yes"/>
<layer number="23" name="tOrigins" color="15" fill="1" visible="yes" active="yes"/>
<layer number="24" name="bOrigins" color="15" fill="1" visible="yes" active="yes"/>
<layer number="25" name="tNames" color="7" fill="1" visible="yes" active="yes"/>
<layer number="26" name="bNames" color="7" fill="1" visible="yes" active="yes"/>
<layer number="27" name="tValues" color="7" fill="1" visible="yes" active="yes"/>
<layer number="28" name="bValues" color="7" fill="1" visible="yes" active="yes"/>
<layer number="29" name="tStop" color="7" fill="3" visible="yes" active="yes"/>
<layer number="30" name="bStop" color="7" fill="6" visible="no" active="yes"/>
<layer number="31" name="tCream" color="7" fill="4" visible="yes" active="yes"/>
<layer number="32" name="bCream" color="7" fill="5" visible="no" active="yes"/>
<layer number="33" name="tFinish" color="6" fill="3" visible="no" active="yes"/>
<layer number="34" name="bFinish" color="6" fill="6" visible="no" active="yes"/>
<layer number="35" name="tGlue" color="7" fill="4" visible="no" active="yes"/>
<layer number="36" name="bGlue" color="7" fill="5" visible="no" active="yes"/>
<layer number="37" name="tTest" color="7" fill="1" visible="no" active="yes"/>
<layer number="38" name="bTest" color="7" fill="1" visible="no" active="yes"/>
<layer number="39" name="tKeepout" color="4" fill="11" visible="yes" active="yes"/>
<layer number="40" name="bKeepout" color="1" fill="11" visible="yes" active="yes"/>
<layer number="41" name="tRestrict" color="4" fill="10" visible="yes" active="yes"/>
<layer number="42" name="bRestrict" color="1" fill="10" visible="yes" active="yes"/>
<layer number="43" name="vRestrict" color="2" fill="10" visible="yes" active="yes"/>
<layer number="44" name="Drills" color="7" fill="1" visible="no" active="yes"/>
<layer number="45" name="Holes" color="7" fill="1" visible="no" active="yes"/>
<layer number="46" name="Milling" color="3" fill="1" visible="no" active="yes"/>
<layer number="47" name="Measures" color="7" fill="1" visible="no" active="yes"/>
<layer number="48" name="Document" color="7" fill="1" visible="yes" active="yes"/>
<layer number="49" name="Reference" color="7" fill="1" visible="yes" active="yes"/>
<layer number="51" name="tDocu" color="7" fill="1" visible="yes" active="yes"/>
<layer number="52" name="bDocu" color="7" fill="1" visible="yes" active="yes"/>
<layer number="90" name="Modules" color="5" fill="1" visible="yes" active="yes"/>
<layer number="91" name="Nets" color="2" fill="1" visible="yes" active="yes"/>
<layer number="92" name="Busses" color="1" fill="1" visible="yes" active="yes"/>
<layer number="93" name="Pins" color="2" fill="1" visible="yes" active="yes"/>
<layer number="94" name="Symbols" color="4" fill="1" visible="yes" active="yes"/>
<layer number="95" name="Names" color="7" fill="1" visible="yes" active="yes"/>
<layer number="96" name="Values" color="7" fill="1" visible="yes" active="yes"/>
<layer number="97" name="Info" color="7" fill="1" visible="yes" active="yes"/>
<layer number="98" name="Guide" color="6" fill="1" visible="yes" active="yes"/>
</layers>
<library>
<packages>
<package name="69410X402002">
<description>&lt;b&gt;694106402002&lt;/b&gt;&lt;p&gt;WR-DC_DC Power Jack_Vertical_THT Center Pin ?2.0_Plug ID ?2.05_Plug OD ?5.5</description>
<wire x1="-4.5" y1="-6.5" x2="4.5" y2="-6.5" width="0.127" layer="51"/>
<wire x1="4.5" y1="-6.5" x2="4.5" y2="4.2" width="0.127" layer="51"/>
<wire x1="-4.5" y1="4.2" x2="4.5" y2="4.2" width="0.127" layer="21"/>
<wire x1="-4.5" y1="-6.5" x2="-4.5" y2="4.2" width="0.127" layer="51"/>
<text x="-3" y="4.95" size="1.27" layer="25" ratio="13" rot="SR0">&gt;NAME</text>
<text x="-3.25" y="-8.3" size="1.27" layer="27" ratio="13" rot="SR0">&gt;VALUE</text>
<wire x1="-3.1" y1="-1.36" x2="-3.1" y2="1.36" width="0.1" layer="46"/>
<wire x1="-3.9" y1="1.36" x2="-3.9" y2="-1.36" width="0.1" layer="46"/>
<wire x1="3.61" y1="-2.5" x2="1.39" y2="-2.5" width="0.1" layer="46"/>
<wire x1="1.39" y1="-3.1" x2="3.61" y2="-3.1" width="0.1" layer="46"/>
<wire x1="-0.09" y1="-5" x2="-2.31" y2="-5" width="0.1" layer="46"/>
<wire x1="-2.31" y1="-5.6" x2="-0.09" y2="-5.6" width="0.1" layer="46"/>
<polygon width="0.127" layer="39">
<vertex x="-5" y="4.45"/>
<vertex x="5" y="4.45"/>
<vertex x="5" y="-6.75"/>
<vertex x="-5" y="-6.75"/>
</polygon>
<wire x1="-3.9" y1="1.36" x2="-3.1" y2="1.36" width="0.1" layer="46" curve="-180"/>
<wire x1="-3.9" y1="-1.36" x2="-3.1" y2="-1.36" width="0.1" layer="46" curve="180"/>
<text x="-2.25" y="-0.74" size="1.27" layer="21">1</text>
<wire x1="1.39" y1="-3.1" x2="1.39" y2="-2.5" width="0.1" layer="46" curve="-180"/>
<wire x1="3.61" y1="-3.1" x2="3.61" y2="-2.5" width="0.1" layer="46" curve="180"/>
<text x="2.78" y="-5.49" size="1.27" layer="21">3</text>
<text x="-1.87" y="-3.77" size="1.27" layer="21">2</text>
<wire x1="-2.31" y1="-5.6" x2="-2.31" y2="-5" width="0.1" layer="46" curve="-180"/>
<wire x1="-0.09" y1="-5.6" x2="-0.09" y2="-5" width="0.1" layer="46" curve="180"/>
<wire x1="-4.5" y1="1.8" x2="-4.5" y2="4.2" width="0.127" layer="21"/>
<wire x1="4.5" y1="-2.1" x2="4.5" y2="4.2" width="0.127" layer="21"/>
<wire x1="4.5" y1="-3.7" x2="4.5" y2="-6.5" width="0.127" layer="21"/>
<wire x1="4.5" y1="-6.5" x2="0.3" y2="-6.5" width="0.127" layer="21"/>
<wire x1="-4.5" y1="-1.9" x2="-4.5" y2="-6.5" width="0.127" layer="21"/>
<wire x1="-4.5" y1="-6.5" x2="-2.5" y2="-6.5" width="0.127" layer="21"/>
<pad name="1" x="-3.5" y="0" drill="0.8" diameter="2.1" shape="long" rot="R90"/>
<pad name="2" x="-1.2" y="-5.3" drill="0.6" diameter="2" shape="long" rot="R180"/>
<pad name="3" x="2.5" y="-2.8" drill="0.6" diameter="2" shape="long"/>
</package>
</packages>
<symbols>
<symbol name="DC_POWER_JACK">
<wire x1="-8.255" y1="-1.27" x2="-8.255" y2="1.27" width="0.1524" layer="94" curve="-180"/>
<wire x1="-8.255" y1="1.27" x2="-3.81" y2="1.27" width="0.1524" layer="94"/>
<wire x1="-3.81" y1="1.27" x2="-3.81" y2="-1.27" width="0.1524" layer="94"/>
<wire x1="-3.81" y1="-1.27" x2="-8.255" y2="-1.27" width="0.1524" layer="94"/>
<wire x1="-3.81" y1="-1.27" x2="-3.81" y2="-1.905" width="0.1524" layer="94"/>
<wire x1="-3.81" y1="-1.905" x2="-2.54" y2="-1.905" width="0.1524" layer="94"/>
<wire x1="-2.54" y1="-1.905" x2="-2.54" y2="1.905" width="0.1524" layer="94"/>
<wire x1="-2.54" y1="1.905" x2="-3.81" y2="1.905" width="0.1524" layer="94"/>
<wire x1="-3.81" y1="1.905" x2="-3.81" y2="1.27" width="0.1524" layer="94"/>
<wire x1="-2.54" y1="-5.08" x2="-8.255" y2="-5.08" width="0.1524" layer="94"/>
<wire x1="-8.255" y1="-5.08" x2="-8.89" y2="-3.81" width="0.1524" layer="94"/>
<wire x1="-8.89" y1="-3.81" x2="-9.525" y2="-5.08" width="0.1524" layer="94"/>
<wire x1="-2.54" y1="-2.54" x2="-2.54" y2="-5.08" width="0.1524" layer="94"/>
<text x="-10.16" y="2.54" size="1.778" layer="95">&gt;NAME</text>
<text x="-10.16" y="-7.62" size="1.778" layer="96">&gt;VALUE</text>
<polygon width="0.1524" layer="94">
<vertex x="-2.54" y="-5.08"/>
<vertex x="-3.048" y="-3.81"/>
<vertex x="-2.032" y="-3.81"/>
</polygon>
<pin name="1" x="0" y="0" visible="pad" length="short" direction="pas" rot="R180"/>
<pin name="2" x="0" y="-5.08" visible="pad" length="short" direction="pas" rot="R180"/>
<pin name="3" x="0" y="-2.54" visible="pad" length="short" direction="pas" rot="R180"/>
</symbol>
</symbols>
<devicesets>
<deviceset name="694106402002" prefix="J">
<description>&lt;b&gt;WR-DC_DC Power Jack_Vertical_THT Center Pin Ø2.0_Plug ID Ø2.05_Plug OD Ø5.5
;&lt;/b&gt;=&gt;Code : Con_WR-DC_THT_6941xx402002_694106402002
&lt;p&gt;&lt;a href="http://katalog.we-online.de/media/images/v2/Family_WR-DC_THT_6941xx402002_pf2.jpg"&gt;
&lt;img src="http://katalog.we-online.de/media/images/v2/Family_WR-DC_THT_6941xx402002_pf2.jpg" width="320"&gt;&lt;/a&gt;&lt;p&gt;
Details see: &lt;a href="http://katalog.we-online.de/em/datasheet/6941xx402002.pdf"&gt;http://katalog.we-online.de/em/datasheet/6941xx402002.pdf&lt;/a&gt;&lt;p&gt;
Created 2014-10-08, Karrer Zheng&lt;br&gt;
2014 (C) Wurth Elektronik</description>
<gates>
<gate name="G$1" symbol="DC_POWER_JACK" x="0" y="0"/>
</gates>
<devices>
<device name="" package="69410X402002">
<connects>
<connect gate="G$1" pin="1" pad="1"/>
<connect gate="G$1" pin="2" pad="2"/>
<connect gate="G$1" pin="3" pad="3"/>
</connects>
<technologies>
<technology name="">
<attribute name="MP" value="694106402002"/>
<attribute name="Availability" value="Unavailable"/>
<attribute name="Package" value="None"/>
<attribute name="Description" value="
DC Power jack [Würth Elektronik] 694106402002 DC Power jack
"/>
<attribute name="Price" value="None"/>
<attribute name="MF" value="Wurth Electronics"/>
</technology>
</technologies>
</device>
</devices>
</deviceset>
</devicesets>
</library>
</drawing>
</eagle>
