<?xml version="1.0" encoding="utf-8"?>
<!--/714793/183429/2.44/15/4/Integrated Circuit/-->
<!DOCTYPE curve SYSTEM "eagle.dtd">
<eagle version="7.7.0">
<drawing>
<settings>
<setting alwaysvectorfont="no"/>
<setting verticaltext="up"/>
</settings>
<grid distance="0.1" unitdist="inch" unit="inch" style="lines" multiple="1" display="no" altdistance="0.01" altunitdist="inch" altunit="inch"/>
<layers>
<layer number="1" name="Top" color="4" fill="1" visible="yes" active="yes"/>
<layer number="16" name="Bottom" color="1" fill="1" visible="yes" active="yes"/>
<layer number="17" name="Pads" color="2" fill="1" visible="yes" active="yes"/>
<layer number="18" name="Vias" color="2" fill="1" visible="yes" active="yes"/>
<layer number="19" name="Unrouted" color="6" fill="1" visible="yes" active="yes"/>
<layer number="20" name="Dimension" color="15" fill="1" visible="yes" active="yes"/>
<layer number="21" name="tPlace" color="7" fill="1" visible="yes" active="yes"/>
<layer number="22" name="bPlace" color="7" fill="1" visible="yes" active="yes"/>
<layer number="23" name="tOrigins" color="15" fill="1" visible="yes" active="yes"/>
<layer number="24" name="bOrigins" color="15" fill="1" visible="yes" active="yes"/>
<layer number="25" name="tNames" color="7" fill="1" visible="yes" active="yes"/>
<layer number="26" name="bNames" color="7" fill="1" visible="yes" active="yes"/>
<layer number="27" name="tValues" color="7" fill="1" visible="yes" active="yes"/>
<layer number="28" name="bValues" color="7" fill="1" visible="yes" active="yes"/>
<layer number="29" name="tStop" color="7" fill="3" visible="no" active="yes"/>
<layer number="30" name="bStop" color="7" fill="6" visible="no" active="yes"/>
<layer number="31" name="tCream" color="7" fill="4" visible="no" active="yes"/>
<layer number="32" name="bCream" color="7" fill="5" visible="no" active="yes"/>
<layer number="33" name="tFinish" color="6" fill="3" visible="no" active="yes"/>
<layer number="34" name="bFinish" color="6" fill="6" visible="no" active="yes"/>
<layer number="35" name="tGlue" color="7" fill="4" visible="no" active="yes"/>
<layer number="36" name="bGlue" color="7" fill="5" visible="no" active="yes"/>
<layer number="37" name="tTest" color="7" fill="1" visible="no" active="yes"/>
<layer number="38" name="bTest" color="7" fill="1" visible="no" active="yes"/>
<layer number="39" name="tKeepout" color="4" fill="11" visible="yes" active="yes"/>
<layer number="40" name="bKeepout" color="1" fill="11" visible="yes" active="yes"/>
<layer number="41" name="tRestrict" color="4" fill="10" visible="yes" active="yes"/>
<layer number="42" name="bRestrict" color="1" fill="10" visible="yes" active="yes"/>
<layer number="43" name="vRestrict" color="2" fill="10" visible="yes" active="yes"/>
<layer number="44" name="Drills" color="7" fill="1" visible="no" active="yes"/>
<layer number="45" name="Holes" color="7" fill="1" visible="no" active="yes"/>
<layer number="46" name="Milling" color="3" fill="1" visible="no" active="yes"/>
<layer number="47" name="Measures" color="7" fill="1" visible="no" active="yes"/>
<layer number="48" name="Document" color="7" fill="1" visible="yes" active="yes"/>
<layer number="49" name="Reference" color="7" fill="1" visible="yes" active="yes"/>
<layer number="51" name="tDocu" color="7" fill="1" visible="yes" active="yes"/>
<layer number="52" name="bDocu" color="7" fill="1" visible="yes" active="yes"/>
<layer number="90" name="Modules" color="5" fill="1" visible="yes" active="yes"/>
<layer number="91" name="Nets" color="2" fill="1" visible="yes" active="yes"/>
<layer number="92" name="Busses" color="1" fill="1" visible="yes" active="yes"/>
<layer number="93" name="Pins" color="2" fill="1" visible="no" active="yes"/>
<layer number="94" name="Symbols" color="4" fill="1" visible="yes" active="yes"/>
<layer number="95" name="Names" color="7" fill="1" visible="yes" active="yes"/>
<layer number="96" name="Values" color="7" fill="1" visible="yes" active="yes"/>
<layer number="97" name="Info" color="7" fill="1" visible="yes" active="yes"/>
<layer number="98" name="Guide" color="6" fill="1" visible="yes" active="yes"/>
</layers>
<library>
<description>&lt;4.5V to 17V Input, 8-A Synchronous Step-Down Converter with Hiccup Current Limit&lt;/b&gt;&lt;p&gt;
&lt;author&gt;Created by SamacSys&lt;/author&gt;</description>
<packages>
<package name="QFN50P350X350X100-15N">
<description>&lt;b&gt;RHL (S-PVQFN-N14)&lt;/b&gt;&lt;br&gt;
</description>
<smd name="1" x="-1.7" y="0.25" dx="0.9" dy="0.3" layer="1" rot="R0"/>
<smd name="2" x="-1.7" y="-0.25" dx="0.9" dy="0.3" layer="1" rot="R0"/>
<smd name="3" x="-1" y="-1.7" dx="0.9" dy="0.3" layer="1" rot="R90"/>
<smd name="4" x="-0.5" y="-1.7" dx="0.9" dy="0.3" layer="1" rot="R90"/>
<smd name="5" x="0" y="-1.7" dx="0.9" dy="0.3" layer="1" rot="R90"/>
<smd name="6" x="0.5" y="-1.7" dx="0.9" dy="0.3" layer="1" rot="R90"/>
<smd name="7" x="1" y="-1.7" dx="0.9" dy="0.3" layer="1" rot="R90"/>
<smd name="8" x="1.7" y="-0.25" dx="0.9" dy="0.3" layer="1" rot="R0"/>
<smd name="9" x="1.7" y="0.25" dx="0.9" dy="0.3" layer="1" rot="R0"/>
<smd name="10" x="1" y="1.7" dx="0.9" dy="0.3" layer="1" rot="R90"/>
<smd name="11" x="0.5" y="1.7" dx="0.9" dy="0.3" layer="1" rot="R90"/>
<smd name="12" x="0" y="1.7" dx="0.9" dy="0.3" layer="1" rot="R90"/>
<smd name="13" x="-0.5" y="1.7" dx="0.9" dy="0.3" layer="1" rot="R90"/>
<smd name="14" x="-1" y="1.7" dx="0.9" dy="0.3" layer="1" rot="R90"/>
<smd name="15" x="0" y="0" dx="2.15" dy="2.15" layer="1" rot="R90"/>
<text x="0" y="0" align="center" size="1.27" layer="25" rot="R0" >&gt;NAME</text>
<text x="0" y="0" align="center" size="1.27" layer="27" rot="R0" >&gt;VALUE</text>
<wire x1="-2.4" y1="2.4" x2="2.4" y2="2.4" width="0.05" layer="51"/>
<wire x1="2.4" y1="2.4" x2="2.4" y2="-2.4" width="0.05" layer="51"/>
<wire x1="2.4" y1="-2.4" x2="-2.4" y2="-2.4" width="0.05" layer="51"/>
<wire x1="-2.4" y1="-2.4" x2="-2.4" y2="2.4" width="0.05" layer="51"/>
<wire x1="-1.75" y1="1.75" x2="1.75" y2="1.75" width="0.1" layer="51"/>
<wire x1="1.75" y1="1.75" x2="1.75" y2="-1.75" width="0.1" layer="51"/>
<wire x1="1.75" y1="-1.75" x2="-1.75" y2="-1.75" width="0.1" layer="51"/>
<wire x1="-1.75" y1="-1.75" x2="-1.75" y2="1.75" width="0.1" layer="51"/>
<wire x1="-1.75" y1="1.25" x2="-1.25" y2="1.75" width="0.1" layer="51"/>
<circle x="-2.15" y="1" radius="0.125" width="0.25" layer="25"/>
</package>
</packages>
<symbols>
<symbol name="TPS54821RHLR">
<wire x1="5.08" y1="20.32" x2="27.94" y2="20.32" width="0.254" layer="94"/>
<wire x1="27.94" y1="-15.24" x2="27.94" y2="20.32" width="0.254" layer="94"/>
<wire x1="27.94" y1="-15.24" x2="5.08" y2="-15.24" width="0.254" layer="94"/>
<wire x1="5.08" y1="20.32" x2="5.08" y2="-15.24" width="0.254" layer="94"/>
<text x="29.21" y="25.4" align="center-left" size="1.778" layer="95">&gt;NAME</text>
<text x="29.21" y="22.86" align="center-left" size="1.778" layer="96">&gt;VALUE</text>
<pin name="RT/CLK" x="0" y="0" length="middle" direction="io" rot="R0"/>
<pin name="GND_1" x="0" y="-2.54" length="middle" direction="io" rot="R0"/>
<pin name="GND_2" x="10.16" y="-20.32" length="middle" direction="io" rot="R90"/>
<pin name="PVIN_1" x="12.7" y="-20.32" length="middle" direction="io" rot="R90"/>
<pin name="PVIN_2" x="15.24" y="-20.32" length="middle" direction="io" rot="R90"/>
<pin name="VIN" x="17.78" y="-20.32" length="middle" direction="io" rot="R90"/>
<pin name="VSENSE" x="20.32" y="-20.32" length="middle" direction="io" rot="R90"/>
<pin name="SS/TR" x="33.02" y="0" length="middle" direction="io" rot="R180"/>
<pin name="COMP" x="33.02" y="-2.54" length="middle" direction="io" rot="R180"/>
<pin name="THERMAL_PAD" x="10.16" y="25.4" length="middle" direction="io" rot="R270"/>
<pin name="PWRGD" x="12.7" y="25.4" length="middle" direction="io" rot="R270"/>
<pin name="BOOT" x="15.24" y="25.4" length="middle" direction="io" rot="R270"/>
<pin name="PH_2" x="17.78" y="25.4" length="middle" direction="io" rot="R270"/>
<pin name="PH_1" x="20.32" y="25.4" length="middle" direction="io" rot="R270"/>
<pin name="EN" x="22.86" y="25.4" length="middle" direction="io" rot="R270"/>
</symbol>
</symbols>
<devicesets>
<deviceset name="TPS54821RHLR" prefix="IC">
<description>&lt;b&gt;4.5V to 17V Input, 8-A Synchronous Step-Down Converter with Hiccup Current Limit&lt;/b&gt;&lt;p&gt;
Source: &lt;a href="http://www.ti.com/lit/gpn/tps54821"&gt; Datasheet &lt;/a&gt;</description>
<gates>
<gate name="G$1" symbol="TPS54821RHLR" x="0" y="0"/>
</gates>
<devices>
<device name="" package="QFN50P350X350X100-15N">
<connects>
<connect gate="G$1" pin="RT/CLK" pad="1"/>
<connect gate="G$1" pin="GND_1" pad="2"/>
<connect gate="G$1" pin="GND_2" pad="3"/>
<connect gate="G$1" pin="PVIN_1" pad="4"/>
<connect gate="G$1" pin="PVIN_2" pad="5"/>
<connect gate="G$1" pin="VIN" pad="6"/>
<connect gate="G$1" pin="VSENSE" pad="7"/>
<connect gate="G$1" pin="COMP" pad="8"/>
<connect gate="G$1" pin="SS/TR" pad="9"/>
<connect gate="G$1" pin="EN" pad="10"/>
<connect gate="G$1" pin="PH_1" pad="11"/>
<connect gate="G$1" pin="PH_2" pad="12"/>
<connect gate="G$1" pin="BOOT" pad="13"/>
<connect gate="G$1" pin="PWRGD" pad="14"/>
<connect gate="G$1" pin="THERMAL_PAD" pad="15"/>
</connects>
<technologies>
<technology name="">
<attribute name="Manufacturer_Name" value="Texas Instruments" constant="no"/>
<attribute name="Manufacturer_Part_Number" value="TPS54821RHLR" constant="no"/>
<attribute name="Mouser_Part_Number" value="595-TPS54821RHLR" constant="no"/>
<attribute name="Mouser_Price-Stock" value="https://www.mouser.com/Search/Refine.aspx?Keyword=595-TPS54821RHLR" constant="no"/>
<attribute name="RS_Part_Number" value="" constant="no"/>
<attribute name="RS_Price-Stock" value="" constant="no"/>
<attribute name="Description" value="4.5V to 17V Input, 8-A Synchronous Step-Down Converter with Hiccup Current Limit" constant="no"/>
<attribute name="Height" value="1mm" constant="no"/>
</technology>
</technologies>
</device>
</devices>
</deviceset>
</devicesets>
</library>
</drawing>
</eagle>
